FraHer/data/CSV160.csv

Record Length,Analog:14000
Sample Interval,CH:0.0000049999999
Vertical Units,CH1:V CH2:V,,,
Vertical Scale,CH1:+7.200000E-01 CH2:+2.000000E-01,,,
Vertical Offset,CH1:-2.505600E+00 CH2:-5.240000E-01,,,
Horizontal Units,us,,,
Horizontal Scale,5000.0000000000,,,
Model Number,SDS2202X-E,,,
Serial Number,SDS2EDDD7R1274,,,
Software Version,2.1.1.1.20 R3,,,
Source,CH1,CH2
Second,Volt,Volt
-3.500000E-02,+5.760000E-01,+4.399997E-02
-3.499500E-02,+5.472000E-01,+4.399997E-02
-3.499000E-02,+5.760000E-01,+4.399997E-02
-3.498500E-02,+6.048000E-01,+5.999997E-02
-3.498000E-02,+6.048000E-01,+5.199996E-02
-3.497500E-02,+6.048000E-01,+4.399997E-02
-3.497000E-02,+5.760000E-01,+4.399997E-02
-3.496500E-02,+5.760000E-01,+4.399997E-02
-3.496000E-02,+5.760000E-01,+4.399997E-02
-3.495500E-02,+5.760000E-01,+4.399997E-02
-3.495000E-02,+6.048000E-01,+4.399997E-02
-3.494500E-02,+5.760000E-01,+4.399997E-02
-3.494000E-02,+6.048000E-01,+5.199996E-02
-3.493500E-02,+5.472000E-01,+5.199996E-02
-3.493000E-02,+5.760000E-01,+4.399997E-02
-3.492500E-02,+5.760000E-01,+4.399997E-02
-3.492000E-02,+5.760000E-01,+4.399997E-02
-3.491500E-02,+5.760000E-01,+4.399997E-02
-3.491000E-02,+5.760000E-01,+4.399997E-02
-3.490500E-02,+5.760000E-01,+4.399997E-02
-3.490000E-02,+5.760000E-01,+4.399997E-02
-3.489500E-02,+5.760000E-01,+4.399997E-02
-3.489000E-02,+5.760000E-01,+4.399997E-02
-3.488500E-02,+5.760000E-01,+4.399997E-02
-3.488000E-02,+5.760000E-01,+4.399997E-02
-3.487500E-02,+5.760000E-01,+4.399997E-02
-3.487000E-02,+5.760000E-01,+4.399997E-02
-3.486500E-02,+5.760000E-01,+5.199996E-02
-3.486000E-02,+5.760000E-01,+4.399997E-02
-3.485500E-02,+6.048000E-01,+4.399997E-02
-3.485000E-02,+5.760000E-01,+4.399997E-02
-3.484500E-02,+5.760000E-01,+5.199996E-02
-3.484000E-02,+6.048000E-01,+5.199996E-02
-3.483500E-02,+6.048000E-01,+4.399997E-02
-3.483000E-02,+5.760000E-01,+4.399997E-02
-3.482500E-02,+5.760000E-01,+4.399997E-02
-3.482000E-02,+5.760000E-01,+4.399997E-02
-3.481500E-02,+6.048000E-01,+4.399997E-02
-3.481000E-02,+6.048000E-01,+4.399997E-02
-3.480500E-02,+5.760000E-01,+4.399997E-02
-3.480000E-02,+6.048000E-01,+3.599995E-02
-3.479500E-02,+5.760000E-01,+3.599995E-02
-3.479000E-02,+5.760000E-01,+4.399997E-02
-3.478500E-02,+6.048000E-01,+4.399997E-02
-3.478000E-02,+6.336000E-01,+3.599995E-02
-3.477500E-02,+6.048000E-01,+5.199996E-02
-3.477000E-02,+6.048000E-01,+4.399997E-02
-3.476500E-02,+6.048000E-01,+3.599995E-02
-3.476000E-02,+6.048000E-01,+3.599995E-02
-3.475500E-02,+6.048000E-01,+3.599995E-02
-3.475000E-02,+6.048000E-01,+3.599995E-02
-3.474500E-02,+6.048000E-01,+3.599995E-02
-3.474000E-02,+5.760000E-01,+5.199996E-02
-3.473500E-02,+6.048000E-01,+4.399997E-02
-3.473000E-02,+6.048000E-01,+4.399997E-02
-3.472500E-02,+6.048000E-01,+4.399997E-02
-3.472000E-02,+6.048000E-01,+3.599995E-02
-3.471500E-02,+6.048000E-01,+5.199996E-02
-3.471000E-02,+6.048000E-01,+3.599995E-02
-3.470500E-02,+6.048000E-01,+4.399997E-02
-3.470000E-02,+6.048000E-01,+3.599995E-02
-3.469500E-02,+6.048000E-01,+3.599995E-02
-3.469000E-02,+6.048000E-01,+3.599995E-02
-3.468500E-02,+6.048000E-01,+3.599995E-02
-3.468000E-02,+6.048000E-01,+3.599995E-02
-3.467500E-02,+6.336000E-01,+3.599995E-02
-3.467000E-02,+6.048000E-01,+3.599995E-02
-3.466500E-02,+6.048000E-01,+3.599995E-02
-3.466000E-02,+6.048000E-01,+3.599995E-02
-3.465500E-02,+6.048000E-01,+3.599995E-02
-3.465000E-02,+6.048000E-01,+3.599995E-02
-3.464500E-02,+6.048000E-01,+3.599995E-02
-3.464000E-02,+6.048000E-01,+3.599995E-02
-3.463500E-02,+6.336000E-01,+3.599995E-02
-3.463000E-02,+6.336000E-01,+3.599995E-02
-3.462500E-02,+6.048000E-01,+3.599995E-02
-3.462000E-02,+6.336000E-01,+3.599995E-02
-3.461500E-02,+6.336000E-01,+4.399997E-02
-3.461000E-02,+6.048000E-01,+3.599995E-02
-3.460500E-02,+6.336000E-01,+4.399997E-02
-3.460000E-02,+6.048000E-01,+4.399997E-02
-3.459500E-02,+6.048000E-01,+3.599995E-02
-3.459000E-02,+6.048000E-01,+3.599995E-02
-3.458500E-02,+6.048000E-01,+4.399997E-02
-3.458000E-02,+6.336000E-01,+4.399997E-02
-3.457500E-02,+6.336000E-01,+3.599995E-02
-3.457000E-02,+6.336000E-01,+3.599995E-02
-3.456500E-02,+6.048000E-01,+3.599995E-02
-3.456000E-02,+6.048000E-01,+3.599995E-02
-3.455500E-02,+6.048000E-01,+4.399997E-02
-3.455000E-02,+6.336000E-01,+3.599995E-02
-3.454500E-02,+6.624000E-01,+4.399997E-02
-3.454000E-02,+6.336000E-01,+3.599995E-02
-3.453500E-02,+6.336000E-01,+3.599995E-02
-3.453000E-02,+6.048000E-01,+4.399997E-02
-3.452500E-02,+6.336000E-01,+3.599995E-02
-3.452000E-02,+6.336000E-01,+3.599995E-02
-3.451500E-02,+6.336000E-01,+4.399997E-02
-3.451000E-02,+6.336000E-01,+3.599995E-02
-3.450500E-02,+6.336000E-01,+3.599995E-02
-3.450000E-02,+6.336000E-01,+3.599995E-02
-3.449500E-02,+6.336000E-01,+3.599995E-02
-3.449000E-02,+6.336000E-01,+3.599995E-02
-3.448500E-02,+6.624000E-01,+3.599995E-02
-3.448000E-02,+6.336000E-01,+4.399997E-02
-3.447500E-02,+6.336000E-01,+3.599995E-02
-3.447000E-02,+6.336000E-01,+3.599995E-02
-3.446500E-02,+6.336000E-01,+3.599995E-02
-3.446000E-02,+6.336000E-01,+3.599995E-02
-3.445500E-02,+6.336000E-01,+4.399997E-02
-3.445000E-02,+6.336000E-01,+3.599995E-02
-3.444500E-02,+6.336000E-01,+3.599995E-02
-3.444000E-02,+6.336000E-01,+3.599995E-02
-3.443500E-02,+6.336000E-01,+3.599995E-02
-3.443000E-02,+6.336000E-01,+3.599995E-02
-3.442500E-02,+6.624000E-01,+3.599995E-02
-3.442000E-02,+6.336000E-01,+3.599995E-02
-3.441500E-02,+6.624000E-01,+4.399997E-02
-3.441000E-02,+6.336000E-01,+3.599995E-02
-3.440500E-02,+6.336000E-01,+3.599995E-02
-3.440000E-02,+6.336000E-01,+3.599995E-02
-3.439500E-02,+6.912000E-01,+3.599995E-02
-3.439000E-02,+6.912000E-01,+3.599995E-02
-3.438500E-02,+6.336000E-01,+3.599995E-02
-3.438000E-02,+6.336000E-01,+3.599995E-02
-3.437500E-02,+6.624000E-01,+2.799997E-02
-3.437000E-02,+6.336000E-01,+4.399997E-02
-3.436500E-02,+6.336000E-01,+3.599995E-02
-3.436000E-02,+6.336000E-01,+3.599995E-02
-3.435500E-02,+6.336000E-01,+3.599995E-02
-3.435000E-02,+6.624000E-01,+3.599995E-02
-3.434500E-02,+6.624000E-01,+3.599995E-02
-3.434000E-02,+6.624000E-01,+3.599995E-02
-3.433500E-02,+6.624000E-01,+3.599995E-02
-3.433000E-02,+6.624000E-01,+3.599995E-02
-3.432500E-02,+6.336000E-01,+2.799997E-02
-3.432000E-02,+6.624000E-01,+4.399997E-02
-3.431500E-02,+6.624000E-01,+2.799997E-02
-3.431000E-02,+6.624000E-01,+3.599995E-02
-3.430500E-02,+6.624000E-01,+2.799997E-02
-3.430000E-02,+6.624000E-01,+3.599995E-02
-3.429500E-02,+6.624000E-01,+2.799997E-02
-3.429000E-02,+6.624000E-01,+2.799997E-02
-3.428500E-02,+6.912000E-01,+2.799997E-02
-3.428000E-02,+6.912000E-01,+3.599995E-02
-3.427500E-02,+6.624000E-01,+3.599995E-02
-3.427000E-02,+6.624000E-01,+3.599995E-02
-3.426500E-02,+6.624000E-01,+2.799997E-02
-3.426000E-02,+6.624000E-01,+3.599995E-02
-3.425500E-02,+6.912000E-01,+4.399997E-02
-3.425000E-02,+6.912000E-01,+4.399997E-02
-3.424500E-02,+6.624000E-01,+3.599995E-02
-3.424000E-02,+6.624000E-01,+2.799997E-02
-3.423500E-02,+6.624000E-01,+3.599995E-02
-3.423000E-02,+6.624000E-01,+3.599995E-02
-3.422500E-02,+6.912000E-01,+2.799997E-02
-3.422000E-02,+6.624000E-01,+3.599995E-02
-3.421500E-02,+6.624000E-01,+3.599995E-02
-3.421000E-02,+6.624000E-01,+3.599995E-02
-3.420500E-02,+6.624000E-01,+2.799997E-02
-3.420000E-02,+6.624000E-01,+3.599995E-02
-3.419500E-02,+7.200000E-01,+2.799997E-02
-3.419000E-02,+6.912000E-01,+3.599995E-02
-3.418500E-02,+6.624000E-01,+3.599995E-02
-3.418000E-02,+6.912000E-01,+3.599995E-02
-3.417500E-02,+6.624000E-01,+4.399997E-02
-3.417000E-02,+6.912000E-01,+2.799997E-02
-3.416500E-02,+6.912000E-01,+2.799997E-02
-3.416000E-02,+6.912000E-01,+2.799997E-02
-3.415500E-02,+6.624000E-01,+4.399997E-02
-3.415000E-02,+6.912000E-01,+2.799997E-02
-3.414500E-02,+6.624000E-01,+3.599995E-02
-3.414000E-02,+7.200000E-01,+3.599995E-02
-3.413500E-02,+6.912000E-01,+2.799997E-02
-3.413000E-02,+6.624000E-01,+3.599995E-02
-3.412500E-02,+6.912000E-01,+2.799997E-02
-3.412000E-02,+6.624000E-01,+2.799997E-02
-3.411500E-02,+6.912000E-01,+2.799997E-02
-3.411000E-02,+6.624000E-01,+2.799997E-02
-3.410500E-02,+6.912000E-01,+2.799997E-02
-3.410000E-02,+7.200000E-01,+2.799997E-02
-3.409500E-02,+6.912000E-01,+2.799997E-02
-3.409000E-02,+6.912000E-01,+2.799997E-02
-3.408500E-02,+6.912000E-01,+2.799997E-02
-3.408000E-02,+6.912000E-01,+3.599995E-02
-3.407500E-02,+6.912000E-01,+2.799997E-02
-3.407000E-02,+6.912000E-01,+2.799997E-02
-3.406500E-02,+6.912000E-01,+2.799997E-02
-3.406000E-02,+6.624000E-01,+3.599995E-02
-3.405500E-02,+6.912000E-01,+2.799997E-02
-3.405000E-02,+6.912000E-01,+3.599995E-02
-3.404500E-02,+7.200000E-01,+3.599995E-02
-3.404000E-02,+6.912000E-01,+3.599995E-02
-3.403500E-02,+6.912000E-01,+2.799997E-02
-3.403000E-02,+6.912000E-01,+2.799997E-02
-3.402500E-02,+6.912000E-01,+2.799997E-02
-3.402000E-02,+7.200000E-01,+2.799997E-02
-3.401500E-02,+6.912000E-01,+2.799997E-02
-3.401000E-02,+6.912000E-01,+2.799997E-02
-3.400500E-02,+6.912000E-01,+3.599995E-02
-3.400000E-02,+6.912000E-01,+2.799997E-02
-3.399500E-02,+6.912000E-01,+2.799997E-02
-3.399000E-02,+6.912000E-01,+3.599995E-02
-3.398500E-02,+6.912000E-01,+2.799997E-02
-3.398000E-02,+6.912000E-01,+2.799997E-02
-3.397500E-02,+6.912000E-01,+2.799997E-02
-3.397000E-02,+7.200000E-01,+2.799997E-02
-3.396500E-02,+6.912000E-01,+2.799997E-02
-3.396000E-02,+7.200000E-01,+2.799997E-02
-3.395500E-02,+6.912000E-01,+2.799997E-02
-3.395000E-02,+7.200000E-01,+2.799997E-02
-3.394500E-02,+7.200000E-01,+2.799997E-02
-3.394000E-02,+6.912000E-01,+2.799997E-02
-3.393500E-02,+7.488000E-01,+2.799997E-02
-3.393000E-02,+7.200000E-01,+2.799997E-02
-3.392500E-02,+7.200000E-01,+2.799997E-02
-3.392000E-02,+6.912000E-01,+2.799997E-02
-3.391500E-02,+7.200000E-01,+2.799997E-02
-3.391000E-02,+7.200000E-01,+2.799997E-02
-3.390500E-02,+7.488000E-01,+3.599995E-02
-3.390000E-02,+7.200000E-01,+2.799997E-02
-3.389500E-02,+7.200000E-01,+2.799997E-02
-3.389000E-02,+7.200000E-01,+2.799997E-02
-3.388500E-02,+7.200000E-01,+2.799997E-02
-3.388000E-02,+6.912000E-01,+2.799997E-02
-3.387500E-02,+7.488000E-01,+2.799997E-02
-3.387000E-02,+7.200000E-01,+3.599995E-02
-3.386500E-02,+7.200000E-01,+2.799997E-02
-3.386000E-02,+7.200000E-01,+2.799997E-02
-3.385500E-02,+7.200000E-01,+3.599995E-02
-3.385000E-02,+7.488000E-01,+2.799997E-02
-3.384500E-02,+7.200000E-01,+2.799997E-02
-3.384000E-02,+7.200000E-01,+2.799997E-02
-3.383500E-02,+7.200000E-01,+2.799997E-02
-3.383000E-02,+7.200000E-01,+2.799997E-02
-3.382500E-02,+7.200000E-01,+3.599995E-02
-3.382000E-02,+7.200000E-01,+2.799997E-02
-3.381500E-02,+7.200000E-01,+3.599995E-02
-3.381000E-02,+7.200000E-01,+2.799997E-02
-3.380500E-02,+7.200000E-01,+2.799997E-02
-3.380000E-02,+7.200000E-01,+2.799997E-02
-3.379500E-02,+7.200000E-01,+1.999998E-02
-3.379000E-02,+7.200000E-01,+2.799997E-02
-3.378500E-02,+7.488000E-01,+2.799997E-02
-3.378000E-02,+7.488000E-01,+2.799997E-02
-3.377500E-02,+7.200000E-01,+2.799997E-02
-3.377000E-02,+7.200000E-01,+2.799997E-02
-3.376500E-02,+7.200000E-01,+2.799997E-02
-3.376000E-02,+7.200000E-01,+2.799997E-02
-3.375500E-02,+7.200000E-01,+2.799997E-02
-3.375000E-02,+7.776000E-01,+2.799997E-02
-3.374500E-02,+7.488000E-01,+2.799997E-02
-3.374000E-02,+7.200000E-01,+2.799997E-02
-3.373500E-02,+7.200000E-01,+3.599995E-02
-3.373000E-02,+7.488000E-01,+2.799997E-02
-3.372500E-02,+7.488000E-01,+2.799997E-02
-3.372000E-02,+7.200000E-01,+2.799997E-02
-3.371500E-02,+7.488000E-01,+2.799997E-02
-3.371000E-02,+7.200000E-01,+3.599995E-02
-3.370500E-02,+7.488000E-01,+2.799997E-02
-3.370000E-02,+7.488000E-01,+2.799997E-02
-3.369500E-02,+7.488000E-01,+2.799997E-02
-3.369000E-02,+7.776000E-01,+3.599995E-02
-3.368500E-02,+7.200000E-01,+2.799997E-02
-3.368000E-02,+7.488000E-01,+2.799997E-02
-3.367500E-02,+7.488000E-01,+2.799997E-02
-3.367000E-02,+7.488000E-01,+2.799997E-02
-3.366500E-02,+7.488000E-01,+3.599995E-02
-3.366000E-02,+7.488000E-01,+2.799997E-02
-3.365500E-02,+7.488000E-01,+2.799997E-02
-3.365000E-02,+7.488000E-01,+2.799997E-02
-3.364500E-02,+7.488000E-01,+2.799997E-02
-3.364000E-02,+7.488000E-01,+2.799997E-02
-3.363500E-02,+7.488000E-01,+3.599995E-02
-3.363000E-02,+7.488000E-01,+2.799997E-02
-3.362500E-02,+7.488000E-01,+2.799997E-02
-3.362000E-02,+7.488000E-01,+2.799997E-02
-3.361500E-02,+7.488000E-01,+2.799997E-02
-3.361000E-02,+7.488000E-01,+2.799997E-02
-3.360500E-02,+7.488000E-01,+1.999998E-02
-3.360000E-02,+7.488000E-01,+2.799997E-02
-3.359500E-02,+7.488000E-01,+2.799997E-02
-3.359000E-02,+7.488000E-01,+1.999998E-02
-3.358500E-02,+7.488000E-01,+2.799997E-02
-3.358000E-02,+7.776000E-01,+1.999998E-02
-3.357500E-02,+7.776000E-01,+3.599995E-02
-3.357000E-02,+7.488000E-01,+2.799997E-02
-3.356500E-02,+7.488000E-01,+2.799997E-02
-3.356000E-02,+7.488000E-01,+2.799997E-02
-3.355500E-02,+7.488000E-01,+2.799997E-02
-3.355000E-02,+7.488000E-01,+1.999998E-02
-3.354500E-02,+7.488000E-01,+2.799997E-02
-3.354000E-02,+7.488000E-01,+1.999998E-02
-3.353500E-02,+7.488000E-01,+3.599995E-02
-3.353000E-02,+7.488000E-01,+2.799997E-02
-3.352500E-02,+7.488000E-01,+2.799997E-02
-3.352000E-02,+7.488000E-01,+2.799997E-02
-3.351500E-02,+8.064001E-01,+1.999998E-02
-3.351000E-02,+7.488000E-01,+2.799997E-02
-3.350500E-02,+7.488000E-01,+2.799997E-02
-3.350000E-02,+7.488000E-01,+1.999998E-02
-3.349500E-02,+7.488000E-01,+2.799997E-02
-3.349000E-02,+7.776000E-01,+3.599995E-02
-3.348500E-02,+7.776000E-01,+3.599995E-02
-3.348000E-02,+7.776000E-01,+2.799997E-02
-3.347500E-02,+7.488000E-01,+3.599995E-02
-3.347000E-02,+7.776000E-01,+2.799997E-02
-3.346500E-02,+7.776000E-01,+2.799997E-02
-3.346000E-02,+7.776000E-01,+3.599995E-02
-3.345500E-02,+8.064001E-01,+2.799997E-02
-3.345000E-02,+7.776000E-01,+1.999998E-02
-3.344500E-02,+7.776000E-01,+1.999998E-02
-3.344000E-02,+7.488000E-01,+1.999998E-02
-3.343500E-02,+7.776000E-01,+2.799997E-02
-3.343000E-02,+7.776000E-01,+3.599995E-02
-3.342500E-02,+7.776000E-01,+1.999998E-02
-3.342000E-02,+7.776000E-01,+2.799997E-02
-3.341500E-02,+8.064001E-01,+2.799997E-02
-3.341000E-02,+7.776000E-01,+1.999998E-02
-3.340500E-02,+8.064001E-01,+1.999998E-02
-3.340000E-02,+8.064001E-01,+1.999998E-02
-3.339500E-02,+7.776000E-01,+2.799997E-02
-3.339000E-02,+7.776000E-01,+1.999998E-02
-3.338500E-02,+8.064001E-01,+1.999998E-02
-3.338000E-02,+7.776000E-01,+1.999998E-02
-3.337500E-02,+7.776000E-01,+1.999998E-02
-3.337000E-02,+7.776000E-01,+1.999998E-02
-3.336500E-02,+8.352000E-01,+2.799997E-02
-3.336000E-02,+8.064001E-01,+1.999998E-02
-3.335500E-02,+7.776000E-01,+1.999998E-02
-3.335000E-02,+7.776000E-01,+1.999998E-02
-3.334500E-02,+8.064001E-01,+3.599995E-02
-3.334000E-02,+8.064001E-01,+1.999998E-02
-3.333500E-02,+8.064001E-01,+2.799997E-02
-3.333000E-02,+7.776000E-01,+1.999998E-02
-3.332500E-02,+7.776000E-01,+1.999998E-02
-3.332000E-02,+7.776000E-01,+1.999998E-02
-3.331500E-02,+7.776000E-01,+1.999998E-02
-3.331000E-02,+8.064001E-01,+2.799997E-02
-3.330500E-02,+8.064001E-01,+1.999998E-02
-3.330000E-02,+8.064001E-01,+1.999998E-02
-3.329500E-02,+7.776000E-01,+3.599995E-02
-3.329000E-02,+7.776000E-01,+1.999998E-02
-3.328500E-02,+8.064001E-01,+2.799997E-02
-3.328000E-02,+8.064001E-01,+1.999998E-02
-3.327500E-02,+8.064001E-01,+2.799997E-02
-3.327000E-02,+8.064001E-01,+1.999998E-02
-3.326500E-02,+7.776000E-01,+1.999998E-02
-3.326000E-02,+8.064001E-01,+1.999998E-02
-3.325500E-02,+8.064001E-01,+1.999998E-02
-3.325000E-02,+8.064001E-01,+1.999998E-02
-3.324500E-02,+8.064001E-01,+1.999998E-02
-3.324000E-02,+8.064001E-01,+1.999998E-02
-3.323500E-02,+7.776000E-01,+1.999998E-02
-3.323000E-02,+8.064001E-01,+1.999998E-02
-3.322500E-02,+8.352000E-01,+1.999998E-02
-3.322000E-02,+8.064001E-01,+1.999998E-02
-3.321500E-02,+8.064001E-01,+1.999998E-02
-3.321000E-02,+8.064001E-01,+1.999998E-02
-3.320500E-02,+7.776000E-01,+2.799997E-02
-3.320000E-02,+8.064001E-01,+1.999998E-02
-3.319500E-02,+8.064001E-01,+1.999998E-02
-3.319000E-02,+8.064001E-01,+1.999998E-02
-3.318500E-02,+8.064001E-01,+1.999998E-02
-3.318000E-02,+8.064001E-01,+1.999998E-02
-3.317500E-02,+8.064001E-01,+2.799997E-02
-3.317000E-02,+8.064001E-01,+1.999998E-02
-3.316500E-02,+8.352000E-01,+1.999998E-02
-3.316000E-02,+8.064001E-01,+1.999998E-02
-3.315500E-02,+8.064001E-01,+1.999998E-02
-3.315000E-02,+8.352000E-01,+1.999998E-02
-3.314500E-02,+8.064001E-01,+2.799997E-02
-3.314000E-02,+8.064001E-01,+1.999998E-02
-3.313500E-02,+8.064001E-01,+1.999998E-02
-3.313000E-02,+8.352000E-01,+1.999998E-02
-3.312500E-02,+8.064001E-01,+1.999998E-02
-3.312000E-02,+8.352000E-01,+1.999998E-02
-3.311500E-02,+8.352000E-01,+1.999998E-02
-3.311000E-02,+8.064001E-01,+1.999998E-02
-3.310500E-02,+8.064001E-01,+1.999998E-02
-3.310000E-02,+8.352000E-01,+1.999998E-02
-3.309500E-02,+8.352000E-01,+2.799997E-02
-3.309000E-02,+8.064001E-01,+1.999998E-02
-3.308500E-02,+8.064001E-01,+1.999998E-02
-3.308000E-02,+8.064001E-01,+1.999998E-02
-3.307500E-02,+8.352000E-01,+1.999998E-02
-3.307000E-02,+8.640000E-01,+1.999998E-02
-3.306500E-02,+8.064001E-01,+1.999998E-02
-3.306000E-02,+8.352000E-01,+1.999998E-02
-3.305500E-02,+8.064001E-01,+1.999998E-02
-3.305000E-02,+8.352000E-01,+1.999998E-02
-3.304500E-02,+8.352000E-01,+1.999998E-02
-3.304000E-02,+8.352000E-01,+1.999998E-02
-3.303500E-02,+8.352000E-01,+1.999998E-02
-3.303000E-02,+8.352000E-01,+2.799997E-02
-3.302500E-02,+8.352000E-01,+1.999998E-02
-3.302000E-02,+8.352000E-01,+1.999998E-02
-3.301500E-02,+8.640000E-01,+1.999998E-02
-3.301000E-02,+8.352000E-01,+1.999998E-02
-3.300500E-02,+8.640000E-01,+1.999998E-02
-3.300000E-02,+8.352000E-01,+2.799997E-02
-3.299500E-02,+8.352000E-01,+1.199996E-02
-3.299000E-02,+8.352000E-01,+1.999998E-02
-3.298500E-02,+8.352000E-01,+1.999998E-02
-3.298000E-02,+8.640000E-01,+1.999998E-02
-3.297500E-02,+8.352000E-01,+1.999998E-02
-3.297000E-02,+8.352000E-01,+1.999998E-02
-3.296500E-02,+8.352000E-01,+1.999998E-02
-3.296000E-02,+8.640000E-01,+1.999998E-02
-3.295500E-02,+8.352000E-01,+2.799997E-02
-3.295000E-02,+8.352000E-01,+1.999998E-02
-3.294500E-02,+8.352000E-01,+1.999998E-02
-3.294000E-02,+8.352000E-01,+1.999998E-02
-3.293500E-02,+8.352000E-01,+1.999998E-02
-3.293000E-02,+8.640000E-01,+1.999998E-02
-3.292500E-02,+8.352000E-01,+1.999998E-02
-3.292000E-02,+8.352000E-01,+2.799997E-02
-3.291500E-02,+8.640000E-01,+1.999998E-02
-3.291000E-02,+8.352000E-01,+1.999998E-02
-3.290500E-02,+8.640000E-01,+1.999998E-02
-3.290000E-02,+8.352000E-01,+1.999998E-02
-3.289500E-02,+8.640000E-01,+1.999998E-02
-3.289000E-02,+8.352000E-01,+1.999998E-02
-3.288500E-02,+8.352000E-01,+1.999998E-02
-3.288000E-02,+8.352000E-01,+1.999998E-02
-3.287500E-02,+8.640000E-01,+1.999998E-02
-3.287000E-02,+8.352000E-01,+1.999998E-02
-3.286500E-02,+8.352000E-01,+1.999998E-02
-3.286000E-02,+8.928000E-01,+2.799997E-02
-3.285500E-02,+8.640000E-01,+2.799997E-02
-3.285000E-02,+8.640000E-01,+1.999998E-02
-3.284500E-02,+8.352000E-01,+1.999998E-02
-3.284000E-02,+8.352000E-01,+1.999998E-02
-3.283500E-02,+8.640000E-01,+1.999998E-02
-3.283000E-02,+8.640000E-01,+1.999998E-02
-3.282500E-02,+8.640000E-01,+2.799997E-02
-3.282000E-02,+8.640000E-01,+1.999998E-02
-3.281500E-02,+8.352000E-01,+1.999998E-02
-3.281000E-02,+8.640000E-01,+1.999998E-02
-3.280500E-02,+8.640000E-01,+1.999998E-02
-3.280000E-02,+8.640000E-01,+1.999998E-02
-3.279500E-02,+8.640000E-01,+1.999998E-02
-3.279000E-02,+8.640000E-01,+2.799997E-02
-3.278500E-02,+8.640000E-01,+1.999998E-02
-3.278000E-02,+8.640000E-01,+1.999998E-02
-3.277500E-02,+8.640000E-01,+1.999998E-02
-3.277000E-02,+8.640000E-01,+1.999998E-02
-3.276500E-02,+8.640000E-01,+1.999998E-02
-3.276000E-02,+8.640000E-01,+1.999998E-02
-3.275500E-02,+8.640000E-01,+1.999998E-02
-3.275000E-02,+8.640000E-01,+2.799997E-02
-3.274500E-02,+8.352000E-01,+1.999998E-02
-3.274000E-02,+8.640000E-01,+1.199996E-02
-3.273500E-02,+8.640000E-01,+1.999998E-02
-3.273000E-02,+8.640000E-01,+1.999998E-02
-3.272500E-02,+8.640000E-01,+1.999998E-02
-3.272000E-02,+8.640000E-01,+1.999998E-02
-3.271500E-02,+8.640000E-01,+1.999998E-02
-3.271000E-02,+8.640000E-01,+1.999998E-02
-3.270500E-02,+8.640000E-01,+1.999998E-02
-3.270000E-02,+8.640000E-01,+2.799997E-02
-3.269500E-02,+8.640000E-01,+1.999998E-02
-3.269000E-02,+8.640000E-01,+1.999998E-02
-3.268500E-02,+8.928000E-01,+1.999998E-02
-3.268000E-02,+8.640000E-01,+1.999998E-02
-3.267500E-02,+8.640000E-01,+1.999998E-02
-3.267000E-02,+8.640000E-01,+1.999998E-02
