UltZvo/data/CSV002.csv

Record Length,Analog:140000
Sample Interval,CH:0.0000000010000
Vertical Units,CH1:V,,,
Vertical Scale,CH1:+2.000000E+00,,,
Vertical Offset,CH1:-6.720000E+00,,,
Horizontal Units,us,,,
Horizontal Scale,10.0000000000,,,
Model Number,SDS1104X-E,,,
Serial Number,SDSMMEBC4R1794,,,
Software Version,8.1.6.1.35R2,,,
Source,CH1
Second,Volt
-1.300000E-05,+2.800000E+00
-1.299900E-05,+2.800000E+00
-1.299800E-05,+2.800000E+00
-1.299700E-05,+2.800000E+00
-1.299600E-05,+2.800000E+00
-1.299500E-05,+2.800000E+00
-1.299400E-05,+2.720000E+00
-1.299300E-05,+2.720000E+00
-1.299200E-05,+2.720000E+00
-1.299100E-05,+2.720000E+00
-1.299000E-05,+2.720000E+00
-1.298900E-05,+2.720000E+00
-1.298800E-05,+2.720000E+00
-1.298700E-05,+2.720000E+00
-1.298600E-05,+2.720000E+00
-1.298500E-05,+2.720000E+00
-1.298400E-05,+2.720000E+00
-1.298300E-05,+2.720000E+00
-1.298200E-05,+2.720000E+00
-1.298100E-05,+2.640000E+00
-1.298000E-05,+2.640000E+00
-1.297900E-05,+2.640000E+00
-1.297800E-05,+2.640000E+00
-1.297700E-05,+2.640000E+00
-1.297600E-05,+2.640000E+00
-1.297500E-05,+2.640000E+00
-1.297400E-05,+2.720000E+00
-1.297300E-05,+2.640000E+00
-1.297200E-05,+2.640000E+00
-1.297100E-05,+2.640000E+00
-1.297000E-05,+2.640000E+00
-1.296900E-05,+2.640000E+00
-1.296800E-05,+2.640000E+00
-1.296700E-05,+2.640000E+00
-1.296600E-05,+2.640000E+00
-1.296500E-05,+2.640000E+00
-1.296400E-05,+2.640000E+00
-1.296300E-05,+2.640000E+00
-1.296200E-05,+2.640000E+00
-1.296100E-05,+2.720000E+00
-1.296000E-05,+2.720000E+00
-1.295900E-05,+2.720000E+00
-1.295800E-05,+2.720000E+00
-1.295700E-05,+2.720000E+00
-1.295600E-05,+2.720000E+00
-1.295500E-05,+2.640000E+00
-1.295400E-05,+2.640000E+00
-1.295300E-05,+2.640000E+00
-1.295200E-05,+2.640000E+00
-1.295100E-05,+2.640000E+00
-1.295000E-05,+2.640000E+00
-1.294900E-05,+2.640000E+00
-1.294800E-05,+2.640000E+00
-1.294700E-05,+2.640000E+00
-1.294600E-05,+2.640000E+00
-1.294500E-05,+2.640000E+00
-1.294400E-05,+2.640000E+00
-1.294300E-05,+2.640000E+00
-1.294200E-05,+2.640000E+00
-1.294100E-05,+2.640000E+00
-1.294000E-05,+2.560000E+00
-1.293900E-05,+2.560000E+00
-1.293800E-05,+2.560000E+00
-1.293700E-05,+2.640000E+00
-1.293600E-05,+2.640000E+00
-1.293500E-05,+2.640000E+00
-1.293400E-05,+2.640000E+00
-1.293300E-05,+2.560000E+00
-1.293200E-05,+2.560000E+00
-1.293100E-05,+2.560000E+00
-1.293000E-05,+2.560000E+00
-1.292900E-05,+2.560000E+00
-1.292800E-05,+2.640000E+00
-1.292700E-05,+2.560000E+00
-1.292600E-05,+2.560000E+00
-1.292500E-05,+2.560000E+00
-1.292400E-05,+2.560000E+00
-1.292300E-05,+2.560000E+00
-1.292200E-05,+2.480000E+00
-1.292100E-05,+2.480000E+00
-1.292000E-05,+2.480000E+00
-1.291900E-05,+2.480000E+00
-1.291800E-05,+2.480000E+00
-1.291700E-05,+2.480000E+00
-1.291600E-05,+2.560000E+00
-1.291500E-05,+2.560000E+00
-1.291400E-05,+2.480000E+00
-1.291300E-05,+2.480000E+00
-1.291200E-05,+2.480000E+00
-1.291100E-05,+2.480000E+00
-1.291000E-05,+2.480000E+00
-1.290900E-05,+2.480000E+00
-1.290800E-05,+2.480000E+00
-1.290700E-05,+2.480000E+00
-1.290600E-05,+2.480000E+00
-1.290500E-05,+2.480000E+00
-1.290400E-05,+2.480000E+00
-1.290300E-05,+2.480000E+00
-1.290200E-05,+2.480000E+00
-1.290100E-05,+2.480000E+00
-1.290000E-05,+2.480000E+00
-1.289900E-05,+2.400000E+00
-1.289800E-05,+2.400000E+00
-1.289700E-05,+2.400000E+00
-1.289600E-05,+2.400000E+00
-1.289500E-05,+2.400000E+00
-1.289400E-05,+2.400000E+00
-1.289300E-05,+2.400000E+00
-1.289200E-05,+2.400000E+00
-1.289100E-05,+2.400000E+00
-1.289000E-05,+2.320000E+00
-1.288900E-05,+2.320000E+00
-1.288800E-05,+2.320000E+00
-1.288700E-05,+2.320000E+00
-1.288600E-05,+2.320000E+00
-1.288500E-05,+2.320000E+00
-1.288400E-05,+2.320000E+00
-1.288300E-05,+2.320000E+00
-1.288200E-05,+2.320000E+00
-1.288100E-05,+2.400000E+00
-1.288000E-05,+2.400000E+00
-1.287900E-05,+2.400000E+00
-1.287800E-05,+2.320000E+00
-1.287700E-05,+2.320000E+00
-1.287600E-05,+2.320000E+00
-1.287500E-05,+2.320000E+00
-1.287400E-05,+2.320000E+00
-1.287300E-05,+2.320000E+00
-1.287200E-05,+2.320000E+00
-1.287100E-05,+2.320000E+00
-1.287000E-05,+2.320000E+00
-1.286900E-05,+2.240000E+00
-1.286800E-05,+2.240000E+00
-1.286700E-05,+2.240000E+00
-1.286600E-05,+2.320000E+00
-1.286500E-05,+2.320000E+00
-1.286400E-05,+2.320000E+00
-1.286300E-05,+2.320000E+00
-1.286200E-05,+2.320000E+00
-1.286100E-05,+2.240000E+00
-1.286000E-05,+2.240000E+00
-1.285900E-05,+2.320000E+00
-1.285800E-05,+2.320000E+00
-1.285700E-05,+2.240000E+00
-1.285600E-05,+2.240000E+00
-1.285500E-05,+2.240000E+00
-1.285400E-05,+2.240000E+00
-1.285300E-05,+2.240000E+00
-1.285200E-05,+2.240000E+00
-1.285100E-05,+2.240000E+00
-1.285000E-05,+2.240000E+00
-1.284900E-05,+2.240000E+00
-1.284800E-05,+2.240000E+00
-1.284700E-05,+2.240000E+00
-1.284600E-05,+2.240000E+00
-1.284500E-05,+2.240000E+00
-1.284400E-05,+2.240000E+00
-1.284300E-05,+2.240000E+00
-1.284200E-05,+2.240000E+00
-1.284100E-05,+2.320000E+00
-1.284000E-05,+2.320000E+00
-1.283900E-05,+2.320000E+00
-1.283800E-05,+2.240000E+00
-1.283700E-05,+2.240000E+00
-1.283600E-05,+2.320000E+00
-1.283500E-05,+2.320000E+00
-1.283400E-05,+2.320000E+00
-1.283300E-05,+2.400000E+00
-1.283200E-05,+2.400000E+00
-1.283100E-05,+2.400000E+00
-1.283000E-05,+2.400000E+00
-1.282900E-05,+2.400000E+00
-1.282800E-05,+2.480000E+00
-1.282700E-05,+2.480000E+00
-1.282600E-05,+2.480000E+00
-1.282500E-05,+2.560000E+00
-1.282400E-05,+2.560000E+00
-1.282300E-05,+2.560000E+00
-1.282200E-05,+2.560000E+00
-1.282100E-05,+2.480000E+00
-1.282000E-05,+2.480000E+00
-1.281900E-05,+2.480000E+00
-1.281800E-05,+2.480000E+00
-1.281700E-05,+2.480000E+00
-1.281600E-05,+2.480000E+00
-1.281500E-05,+2.480000E+00
-1.281400E-05,+2.480000E+00
-1.281300E-05,+2.480000E+00
-1.281200E-05,+2.480000E+00
-1.281100E-05,+2.480000E+00
-1.281000E-05,+2.400000E+00
-1.280900E-05,+2.400000E+00
-1.280800E-05,+2.400000E+00
-1.280700E-05,+2.400000E+00
-1.280600E-05,+2.320000E+00
-1.280500E-05,+2.320000E+00
-1.280400E-05,+2.320000E+00
-1.280300E-05,+2.320000E+00
-1.280200E-05,+2.320000E+00
-1.280100E-05,+2.320000E+00
-1.280000E-05,+2.320000E+00
-1.279900E-05,+2.320000E+00
-1.279800E-05,+2.320000E+00
-1.279700E-05,+2.320000E+00
-1.279600E-05,+2.400000E+00
-1.279500E-05,+2.400000E+00
-1.279400E-05,+2.320000E+00
-1.279300E-05,+2.320000E+00
-1.279200E-05,+2.320000E+00
-1.279100E-05,+2.320000E+00
-1.279000E-05,+2.320000E+00
-1.278900E-05,+2.400000E+00
-1.278800E-05,+2.400000E+00
-1.278700E-05,+2.400000E+00
-1.278600E-05,+2.400000E+00
-1.278500E-05,+2.480000E+00
-1.278400E-05,+2.480000E+00
-1.278300E-05,+2.400000E+00
-1.278200E-05,+2.400000E+00
-1.278100E-05,+2.400000E+00
-1.278000E-05,+2.400000E+00
-1.277900E-05,+2.400000E+00
-1.277800E-05,+2.400000E+00
-1.277700E-05,+2.400000E+00
-1.277600E-05,+2.400000E+00
-1.277500E-05,+2.320000E+00
-1.277400E-05,+2.320000E+00
-1.277300E-05,+2.320000E+00
-1.277200E-05,+2.320000E+00
-1.277100E-05,+2.320000E+00
-1.277000E-05,+2.320000E+00
-1.276900E-05,+2.400000E+00
-1.276800E-05,+2.320000E+00
-1.276700E-05,+2.320000E+00
-1.276600E-05,+2.320000E+00
-1.276500E-05,+2.320000E+00
-1.276400E-05,+2.320000E+00
-1.276300E-05,+2.320000E+00
-1.276200E-05,+2.400000E+00
-1.276100E-05,+2.400000E+00
-1.276000E-05,+2.400000E+00
-1.275900E-05,+2.400000E+00
-1.275800E-05,+2.320000E+00
-1.275700E-05,+2.320000E+00
-1.275600E-05,+2.320000E+00
-1.275500E-05,+2.320000E+00
-1.275400E-05,+2.320000E+00
-1.275300E-05,+2.240000E+00
-1.275200E-05,+2.240000E+00
-1.275100E-05,+2.240000E+00
-1.275000E-05,+2.240000E+00
-1.274900E-05,+2.240000E+00
-1.274800E-05,+2.240000E+00
-1.274700E-05,+2.240000E+00
-1.274600E-05,+2.240000E+00
-1.274500E-05,+2.240000E+00
-1.274400E-05,+2.240000E+00
-1.274300E-05,+2.240000E+00
-1.274200E-05,+2.320000E+00
-1.274100E-05,+2.320000E+00
-1.274000E-05,+2.320000E+00
-1.273900E-05,+2.320000E+00
-1.273800E-05,+2.320000E+00
-1.273700E-05,+2.240000E+00
-1.273600E-05,+2.320000E+00
-1.273500E-05,+2.320000E+00
-1.273400E-05,+2.320000E+00
-1.273300E-05,+2.320000E+00
-1.273200E-05,+2.320000E+00
-1.273100E-05,+2.320000E+00
-1.273000E-05,+2.320000E+00
-1.272900E-05,+2.320000E+00
-1.272800E-05,+2.320000E+00
-1.272700E-05,+2.320000E+00
-1.272600E-05,+2.320000E+00
-1.272500E-05,+2.320000E+00
-1.272400E-05,+2.320000E+00
-1.272300E-05,+2.320000E+00
-1.272200E-05,+2.320000E+00
-1.272100E-05,+2.320000E+00
-1.272000E-05,+2.240000E+00
-1.271900E-05,+2.240000E+00
-1.271800E-05,+2.240000E+00
-1.271700E-05,+2.240000E+00
-1.271600E-05,+2.160000E+00
-1.271500E-05,+2.160000E+00
-1.271400E-05,+2.160000E+00
-1.271300E-05,+2.160000E+00
-1.271200E-05,+2.240000E+00
-1.271100E-05,+2.240000E+00
-1.271000E-05,+2.160000E+00
-1.270900E-05,+2.160000E+00
-1.270800E-05,+2.160000E+00
-1.270700E-05,+2.160000E+00
-1.270600E-05,+2.160000E+00
-1.270500E-05,+2.160000E+00
-1.270400E-05,+2.160000E+00
-1.270300E-05,+2.160000E+00
-1.270200E-05,+2.160000E+00
-1.270100E-05,+2.160000E+00
-1.270000E-05,+2.240000E+00
-1.269900E-05,+2.240000E+00
-1.269800E-05,+2.160000E+00
-1.269700E-05,+2.160000E+00
-1.269600E-05,+2.160000E+00
-1.269500E-05,+2.160000E+00
-1.269400E-05,+2.160000E+00
-1.269300E-05,+2.160000E+00
-1.269200E-05,+2.160000E+00
-1.269100E-05,+2.080000E+00
-1.269000E-05,+2.160000E+00
-1.268900E-05,+2.160000E+00
-1.268800E-05,+2.080000E+00
-1.268700E-05,+2.080000E+00
-1.268600E-05,+2.160000E+00
-1.268500E-05,+2.160000E+00
-1.268400E-05,+2.160000E+00
-1.268300E-05,+2.160000E+00
-1.268200E-05,+2.160000E+00
-1.268100E-05,+2.160000E+00
-1.268000E-05,+2.160000E+00
-1.267900E-05,+2.160000E+00
-1.267800E-05,+2.160000E+00
-1.267700E-05,+2.080000E+00
-1.267600E-05,+2.080000E+00
-1.267500E-05,+2.080000E+00
-1.267400E-05,+2.080000E+00
-1.267300E-05,+2.080000E+00
-1.267200E-05,+2.080000E+00
-1.267100E-05,+2.080000E+00
-1.267000E-05,+2.080000E+00
-1.266900E-05,+2.080000E+00
-1.266800E-05,+2.080000E+00
-1.266700E-05,+2.080000E+00
-1.266600E-05,+2.080000E+00
-1.266500E-05,+2.000000E+00
-1.266400E-05,+2.000000E+00
-1.266300E-05,+2.000000E+00
-1.266200E-05,+2.000000E+00
-1.266100E-05,+2.080000E+00
-1.266000E-05,+2.080000E+00
-1.265900E-05,+2.080000E+00
-1.265800E-05,+2.080000E+00
-1.265700E-05,+2.000000E+00
-1.265600E-05,+2.000000E+00
-1.265500E-05,+2.000000E+00
-1.265400E-05,+2.000000E+00
-1.265300E-05,+2.000000E+00
-1.265200E-05,+2.000000E+00
-1.265100E-05,+2.000000E+00
-1.265000E-05,+2.000000E+00
-1.264900E-05,+2.000000E+00
-1.264800E-05,+2.000000E+00
-1.264700E-05,+1.920000E+00
-1.264600E-05,+1.920000E+00
-1.264500E-05,+1.920000E+00
-1.264400E-05,+1.920000E+00
-1.264300E-05,+1.920000E+00
-1.264200E-05,+2.000000E+00
-1.264100E-05,+2.000000E+00
-1.264000E-05,+2.000000E+00
-1.263900E-05,+2.000000E+00
-1.263800E-05,+2.000000E+00
-1.263700E-05,+1.920000E+00
-1.263600E-05,+1.920000E+00
-1.263500E-05,+1.920000E+00
-1.263400E-05,+1.920000E+00
-1.263300E-05,+1.920000E+00
-1.263200E-05,+1.920000E+00
-1.263100E-05,+1.920000E+00
-1.263000E-05,+1.920000E+00
-1.262900E-05,+1.920000E+00
-1.262800E-05,+1.920000E+00
-1.262700E-05,+1.920000E+00
-1.262600E-05,+1.920000E+00
-1.262500E-05,+1.920000E+00
-1.262400E-05,+1.920000E+00
-1.262300E-05,+1.920000E+00
-1.262200E-05,+1.920000E+00
-1.262100E-05,+1.920000E+00
-1.262000E-05,+1.920000E+00
-1.261900E-05,+1.920000E+00
-1.261800E-05,+1.920000E+00
-1.261700E-05,+1.920000E+00
-1.261600E-05,+1.920000E+00
-1.261500E-05,+1.920000E+00
-1.261400E-05,+1.920000E+00
-1.261300E-05,+1.920000E+00
-1.261200E-05,+1.920000E+00
-1.261100E-05,+2.000000E+00
-1.261000E-05,+2.000000E+00
-1.260900E-05,+2.080000E+00
-1.260800E-05,+2.080000E+00
-1.260700E-05,+2.080000E+00
-1.260600E-05,+2.160000E+00
-1.260500E-05,+2.160000E+00
-1.260400E-05,+2.160000E+00
-1.260300E-05,+2.160000E+00
-1.260200E-05,+2.160000E+00
-1.260100E-05,+2.240000E+00
-1.260000E-05,+2.240000E+00
-1.259900E-05,+2.240000E+00
-1.259800E-05,+2.160000E+00
-1.259700E-05,+2.160000E+00
-1.259600E-05,+2.160000E+00
-1.259500E-05,+2.160000E+00
-1.259400E-05,+2.240000E+00
-1.259300E-05,+2.240000E+00
-1.259200E-05,+2.160000E+00
-1.259100E-05,+2.160000E+00
-1.259000E-05,+2.160000E+00
-1.258900E-05,+2.160000E+00
-1.258800E-05,+2.160000E+00
-1.258700E-05,+2.160000E+00
-1.258600E-05,+2.080000E+00
-1.258500E-05,+2.080000E+00
-1.258400E-05,+2.080000E+00
-1.258300E-05,+2.000000E+00
-1.258200E-05,+2.080000E+00
-1.258100E-05,+2.080000E+00
-1.258000E-05,+2.080000E+00
-1.257900E-05,+2.080000E+00
-1.257800E-05,+2.080000E+00
-1.257700E-05,+2.080000E+00
-1.257600E-05,+2.160000E+00
-1.257500E-05,+2.160000E+00
-1.257400E-05,+2.160000E+00
-1.257300E-05,+2.160000E+00
-1.257200E-05,+2.240000E+00
-1.257100E-05,+2.320000E+00
-1.257000E-05,+2.400000E+00
-1.256900E-05,+2.400000E+00
-1.256800E-05,+2.480000E+00
-1.256700E-05,+2.480000E+00
-1.256600E-05,+2.480000E+00
-1.256500E-05,+2.480000E+00
-1.256400E-05,+2.560000E+00
-1.256300E-05,+2.560000E+00
-1.256200E-05,+2.560000E+00
-1.256100E-05,+2.560000E+00
-1.256000E-05,+2.560000E+00
-1.255900E-05,+2.560000E+00
-1.255800E-05,+2.560000E+00
-1.255700E-05,+2.480000E+00
-1.255600E-05,+2.480000E+00
-1.255500E-05,+2.480000E+00
-1.255400E-05,+2.480000E+00
-1.255300E-05,+2.400000E+00
-1.255200E-05,+2.400000E+00
-1.255100E-05,+2.400000E+00
-1.255000E-05,+2.400000E+00
-1.254900E-05,+2.320000E+00
-1.254800E-05,+2.320000E+00
-1.254700E-05,+2.320000E+00
-1.254600E-05,+2.240000E+00
-1.254500E-05,+2.240000E+00
-1.254400E-05,+2.240000E+00
-1.254300E-05,+2.240000E+00
-1.254200E-05,+2.240000E+00
-1.254100E-05,+2.240000E+00
-1.254000E-05,+2.240000E+00
-1.253900E-05,+2.160000E+00
-1.253800E-05,+2.160000E+00
-1.253700E-05,+2.160000E+00
-1.253600E-05,+2.160000E+00
-1.253500E-05,+2.240000E+00
-1.253400E-05,+2.240000E+00
-1.253300E-05,+2.240000E+00
-1.253200E-05,+2.240000E+00
-1.253100E-05,+2.240000E+00
-1.253000E-05,+2.240000E+00
-1.252900E-05,+2.240000E+00
-1.252800E-05,+2.160000E+00
-1.252700E-05,+2.160000E+00
-1.252600E-05,+2.160000E+00
-1.252500E-05,+2.240000E+00
-1.252400E-05,+2.240000E+00
-1.252300E-05,+2.240000E+00
-1.252200E-05,+2.240000E+00
-1.252100E-05,+2.160000E+00
-1.252000E-05,+2.240000E+00
-1.251900E-05,+2.240000E+00
-1.251800E-05,+2.240000E+00
-1.251700E-05,+2.240000E+00
-1.251600E-05,+2.240000E+00
-1.251500E-05,+2.240000E+00
-1.251400E-05,+2.240000E+00
-1.251300E-05,+2.240000E+00
-1.251200E-05,+2.240000E+00
-1.251100E-05,+2.240000E+00
-1.251000E-05,+2.240000E+00
-1.250900E-05,+2.240000E+00
-1.250800E-05,+2.240000E+00
-1.250700E-05,+2.240000E+00
-1.250600E-05,+2.240000E+00
-1.250500E-05,+2.240000E+00
-1.250400E-05,+2.240000E+00
-1.250300E-05,+2.240000E+00
-1.250200E-05,+2.240000E+00
-1.250100E-05,+2.240000E+00
-1.250000E-05,+2.240000E+00
-1.249900E-05,+2.240000E+00
-1.249800E-05,+2.240000E+00
-1.249700E-05,+2.160000E+00
-1.249600E-05,+2.160000E+00
-1.249500E-05,+2.160000E+00
-1.249400E-05,+2.160000E+00
-1.249300E-05,+2.160000E+00
-1.249200E-05,+2.160000E+00
-1.249100E-05,+2.080000E+00
-1.249000E-05,+2.080000E+00
-1.248900E-05,+2.080000E+00
-1.248800E-05,+2.080000E+00
-1.248700E-05,+2.080000E+00
-1.248600E-05,+2.080000E+00
-1.248500E-05,+2.080000E+00
-1.248400E-05,+2.080000E+00
-1.248300E-05,+2.080000E+00
-1.248200E-05,+2.080000E+00
-1.248100E-05,+2.080000E+00
-1.248000E-05,+2.080000E+00
-1.247900E-05,+2.080000E+00
-1.247800E-05,+2.080000E+00
-1.247700E-05,+2.080000E+00
-1.247600E-05,+2.080000E+00
-1.247500E-05,+2.080000E+00
-1.247400E-05,+2.080000E+00
-1.247300E-05,+2.080000E+00
-1.247200E-05,+2.080000E+00
-1.247100E-05,+2.080000E+00
-1.247000E-05,+2.080000E+00
-1.246900E-05,+2.080000E+00
-1.246800E-05,+2.080000E+00
-1.246700E-05,+2.080000E+00
-1.246600E-05,+2.080000E+00
-1.246500E-05,+2.080000E+00
-1.246400E-05,+2.160000E+00
-1.246300E-05,+2.160000E+00
-1.246200E-05,+2.160000E+00
-1.246100E-05,+2.160000E+00
-1.246000E-05,+2.160000E+00
-1.245900E-05,+2.160000E+00
-1.245800E-05,+2.080000E+00
-1.245700E-05,+2.080000E+00
-1.245600E-05,+2.080000E+00
-1.245500E-05,+2.080000E+00
-1.245400E-05,+2.080000E+00
-1.245300E-05,+2.080000E+00
-1.245200E-05,+2.080000E+00
-1.245100E-05,+2.080000E+00
-1.245000E-05,+2.080000E+00
-1.244900E-05,+2.080000E+00
-1.244800E-05,+2.000000E+00
-1.244700E-05,+2.000000E+00
-1.244600E-05,+2.000000E+00
-1.244500E-05,+1.920000E+00
-1.244400E-05,+1.920000E+00
-1.244300E-05,+2.000000E+00
-1.244200E-05,+2.000000E+00
-1.244100E-05,+2.000000E+00
-1.244000E-05,+2.000000E+00
-1.243900E-05,+2.000000E+00
-1.243800E-05,+2.000000E+00
-1.243700E-05,+2.000000E+00
-1.243600E-05,+2.000000E+00
-1.243500E-05,+2.000000E+00
-1.243400E-05,+2.000000E+00
-1.243300E-05,+2.000000E+00
-1.243200E-05,+2.000000E+00
-1.243100E-05,+2.000000E+00
-1.243000E-05,+1.920000E+00
-1.242900E-05,+1.920000E+00
-1.242800E-05,+1.920000E+00
-1.242700E-05,+2.000000E+00
-1.242600E-05,+2.000000E+00
-1.242500E-05,+1.920000E+00
-1.242400E-05,+2.000000E+00
-1.242300E-05,+2.000000E+00
-1.242200E-05,+2.000000E+00
-1.242100E-05,+2.000000E+00
-1.242000E-05,+2.000000E+00
-1.241900E-05,+2.000000E+00
-1.241800E-05,+2.000000E+00
-1.241700E-05,+1.920000E+00
-1.241600E-05,+1.920000E+00
-1.241500E-05,+1.920000E+00
-1.241400E-05,+2.000000E+00
-1.241300E-05,+2.000000E+00
-1.241200E-05,+1.920000E+00
-1.241100E-05,+2.000000E+00
-1.241000E-05,+2.000000E+00
-1.240900E-05,+2.000000E+00
-1.240800E-05,+2.000000E+00
-1.240700E-05,+2.000000E+00
-1.240600E-05,+2.000000E+00
-1.240500E-05,+1.920000E+00
-1.240400E-05,+1.920000E+00
-1.240300E-05,+1.920000E+00
-1.240200E-05,+1.920000E+00
-1.240100E-05,+1.840000E+00
-1.240000E-05,+1.840000E+00
-1.239900E-05,+1.840000E+00
-1.239800E-05,+1.840000E+00
-1.239700E-05,+1.920000E+00
-1.239600E-05,+1.920000E+00
-1.239500E-05,+1.840000E+00
-1.239400E-05,+1.840000E+00
-1.239300E-05,+1.840000E+00
-1.239200E-05,+1.840000E+00
-1.239100E-05,+1.840000E+00
-1.239000E-05,+1.840000E+00
-1.238900E-05,+1.840000E+00
-1.238800E-05,+1.840000E+00
-1.238700E-05,+1.840000E+00
-1.238600E-05,+1.840000E+00
-1.238500E-05,+1.840000E+00
-1.238400E-05,+1.840000E+00
-1.238300E-05,+1.840000E+00
-1.238200E-05,+1.840000E+00
-1.238100E-05,+1.840000E+00
-1.238000E-05,+1.760000E+00
-1.237900E-05,+1.760000E+00
-1.237800E-05,+1.760000E+00
-1.237700E-05,+1.760000E+00
-1.237600E-05,+1.760000E+00
-1.237500E-05,+1.760000E+00
-1.237400E-05,+1.840000E+00
-1.237300E-05,+1.840000E+00
-1.237200E-05,+1.840000E+00
-1.237100E-05,+1.840000E+00
-1.237000E-05,+1.840000E+00
-1.236900E-05,+1.840000E+00
-1.236800E-05,+1.840000E+00
-1.236700E-05,+1.840000E+00
-1.236600E-05,+1.840000E+00
-1.236500E-05,+1.840000E+00
-1.236400E-05,+1.760000E+00
-1.236300E-05,+1.760000E+00
-1.236200E-05,+1.840000E+00
-1.236100E-05,+1.840000E+00
-1.236000E-05,+1.840000E+00
-1.235900E-05,+1.840000E+00
-1.235800E-05,+1.840000E+00
-1.235700E-05,+1.840000E+00
-1.235600E-05,+1.760000E+00
-1.235500E-05,+1.760000E+00
-1.235400E-05,+1.760000E+00
-1.235300E-05,+1.760000E+00
-1.235200E-05,+1.840000E+00
-1.235100E-05,+1.840000E+00
-1.235000E-05,+1.840000E+00
-1.234900E-05,+1.840000E+00
-1.234800E-05,+1.840000E+00
-1.234700E-05,+1.760000E+00
-1.234600E-05,+1.760000E+00
-1.234500E-05,+1.760000E+00
-1.234400E-05,+1.840000E+00
-1.234300E-05,+1.840000E+00
-1.234200E-05,+1.840000E+00
-1.234100E-05,+1.840000E+00
-1.234000E-05,+1.840000E+00
-1.233900E-05,+1.840000E+00
-1.233800E-05,+1.840000E+00
-1.233700E-05,+1.840000E+00
-1.233600E-05,+1.840000E+00
-1.233500E-05,+1.840000E+00
-1.233400E-05,+1.840000E+00
-1.233300E-05,+1.840000E+00
-1.233200E-05,+1.920000E+00
-1.233100E-05,+1.920000E+00
-1.233000E-05,+1.920000E+00
-1.232900E-05,+1.840000E+00
-1.232800E-05,+1.840000E+00
-1.232700E-05,+1.840000E+00
-1.232600E-05,+1.840000E+00
-1.232500E-05,+1.840000E+00
-1.232400E-05,+1.840000E+00
-1.232300E-05,+1.760000E+00
-1.232200E-05,+1.760000E+00
-1.232100E-05,+1.760000E+00
-1.232000E-05,+1.840000E+00
-1.231900E-05,+1.840000E+00
-1.231800E-05,+1.840000E+00
-1.231700E-05,+1.840000E+00
-1.231600E-05,+1.840000E+00
-1.231500E-05,+1.840000E+00
-1.231400E-05,+1.760000E+00
-1.231300E-05,+1.760000E+00
-1.231200E-05,+1.760000E+00
-1.231100E-05,+1.760000E+00
-1.231000E-05,+1.760000E+00
-1.230900E-05,+1.760000E+00
-1.230800E-05,+1.680000E+00
-1.230700E-05,+1.680000E+00
-1.230600E-05,+1.680000E+00
-1.230500E-05,+1.760000E+00
-1.230400E-05,+1.760000E+00
-1.230300E-05,+1.760000E+00
-1.230200E-05,+1.760000E+00
-1.230100E-05,+1.760000E+00
-1.230000E-05,+1.760000E+00
-1.229900E-05,+1.760000E+00
